…
    ## Warning: The `add` argument of `group_by()` is deprecated as of dplyr 1.0.0.
    ## Please use the `.add` argument instead.
    ## This warning is displayed once every 8 hours.
    ## Call `lifecycle::last_warnings()` to see where this warning was generated.

``` r
trends$work_loss
```

    ## # A tibble: 24 x 6
    ## # Groups:   wks_incl, week [12]
    ##    name  wks_incl week  wrkloss share share_se
    ##    <fct> <chr>    <fct> <fct>   <dbl>    <dbl>
    ##  1 US    1_12     1     loss     0.47   0.0041
    ##  2 US    1_12     2     loss     0.47   0.006 
    ##  3 US    1_12     3     loss     0.48   0.0054
    ##  4 US    1_12     4     loss     0.48   0.0047
    ##  5 US    1_12     5     loss     0.48   0.0041
    ##  6 US    1_12     6     loss     0.48   0.0046
    ##  7 US    1_12     7     loss     0.48   0.0055
    ##  8 US    1_12     8     loss     0.48   0.0049
    ##  9 US    1_12     9     loss     0.49   0.0045
    ## 10 US    1_12     10    loss     0.5    0.0045
    ## # … with 14 more rows

## food insecurity (current)

not much of any change

``` r
trends$food_insecurity <- srvys %>%
  map(filter, !is.na(current_food)) %>%
  compare_share(week, current_food) %>%
  filter(current_food == "insecure")

trends$food_insecurity
```

    ## # A tibble: 24 x 6
    ## # Groups:   wks_incl, week [12]
    ##    name  wks_incl week  current_food share share_se
    ##    <fct> <chr>    <fct> <fct>        <dbl>    <dbl>
    ##  1 US    1_12     1     insecure     0.098  0.00290
    ##  2 US    1_12     2     insecure     0.11   0.0042 
    ##  3 US    1_12     3     insecure     0.11   0.0038 
    ##  4 US    1_12     4     insecure     0.099  0.0033 
    ##  5 US    1_12     5     insecure     0.11   0.0031 
    ##  6 US    1_12     6     insecure     0.1    0.0033 
    ##  7 US    1_12     7     insecure     0.1    0.0038 
    ##  8 US    1_12     8     insecure     0.097  0.0031 
    ##  9 US    1_12     9     insecure     0.1    0.0032 
    ## 10 US    1_12     10    insecure     0.11   0.0032 
    ## # … with 14 more rows
…
## missed care

~~not changing~~ or fluctuating

``` r
trends$missed_med_care <- srvys %>%
  map(filter, !is.na(miss_care)) %>%
  compare_share(week, miss_care) %>%
  filter(miss_care == "missed")

trends$missed_med_care
```

    ## # A tibble: 24 x 6
    ## # Groups:   wks_incl, week [12]
    ##    name  wks_incl week  miss_care share share_se
    ##    <fct> <chr>    <fct> <fct>     <dbl>    <dbl>
    ##  1 US    1_12     1     missed     0.32   0.0039
    ##  2 US    1_12     2     missed     0.34   0.0057
    ##  3 US    1_12     3     missed     0.33   0.0053
    ##  4 US    1_12     4     missed     0.33   0.0047
    ##  5 US    1_12     5     missed     0.33   0.004 
    ##  6 US    1_12     6     missed     0.32   0.0045
    ##  7 US    1_12     7     missed     0.32   0.005 
    ##  8 US    1_12     8     missed     0.33   0.0049
    ##  9 US    1_12     9     missed     0.32   0.0044
    ## 10 US    1_12     10    missed     0.32   0.0043
    ## # … with 14 more rows

## anxiety

steady/fluctuating

``` r
trends$anxiety <- srvys %>%
  map(filter, !is.na(anxious)) %>%
  compare_share(week, anxious) %>%
  filter(anxious == "most_all_days")

trends$anxiety
```

    ## # A tibble: 24 x 6
    ## # Groups:   wks_incl, week [12]
    ##    name  wks_incl week  anxious       share share_se
    ##    <fct> <chr>    <fct> <fct>         <dbl>    <dbl>
    ##  1 US    1_12     1     most_all_days 0.3     0.0039
    ##  2 US    1_12     2     most_all_days 0.290   0.0057
    ##  3 US    1_12     3     most_all_days 0.27    0.005 
    ##  4 US    1_12     4     most_all_days 0.28    0.0047
    ##  5 US    1_12     5     most_all_days 0.290   0.004 
    ##  6 US    1_12     6     most_all_days 0.3     0.0046
    ##  7 US    1_12     7     most_all_days 0.3     0.005 
    ##  8 US    1_12     8     most_all_days 0.3     0.0045
    ##  9 US    1_12     9     most_all_days 0.31    0.0044
    ## 10 US    1_12     10    most_all_days 0.32    0.0044
    ## # … with 14 more rows

## housing insecure—can’t pay next month

~~not changing~~ fluctuating

``` r
trends$housing_insecurity <- srvys %>%
  map(filter, !is.na(housing_conf)) %>%
  compare_share(week, housing_conf) %>%
  filter(housing_conf == "not_confident")

trends$housing_insecurity
```

    ## # A tibble: 24 x 6
    ## # Groups:   wks_incl, week [12]
    ##    name  wks_incl week  housing_conf  share share_se
    ##    <fct> <chr>    <fct> <fct>         <dbl>    <dbl>
    ##  1 US    1_12     1     not_confident  0.21  0.0047 
    ##  2 US    1_12     2     not_confident  0.22  0.0068 
    ##  3 US    1_12     3     not_confident  0.22  0.0062 
    ##  4 US    1_12     4     not_confident  0.21  0.0053 
    ##  5 US    1_12     5     not_confident  0.21  0.0047 
    ##  6 US    1_12     6     not_confident  0.19  0.00480
    ##  7 US    1_12     7     not_confident  0.2   0.00580
    ##  8 US    1_12     8     not_confident  0.21  0.0054 
    ##  9 US    1_12     9     not_confident  0.22  0.0052 
    ## 10 US    1_12     10    not_confident  0.22  0.005  
    ## # … with 14 more rows
…
